{
    "estudiantes" : 
    [{
        "Apellidos": "Reina Holguín",
        "Nombres": "Gema Nicole",
        "Semestre": "5to ",
        "Paralelo": "B",
        "Dirección": "Calle 12 ave 22",
        "Teléfono": "0978729608",
        "Correo": "gemita_25_reyna@hotmail.com" 
    },
    {
        "Apellidos": "Macas Mera",
        "Nombres": "Jefferson René",
        "Semestre": "4to",
        "Paralelo": "A",
        "Dirección": "Santa Martha",
        "Teléfono": "0987453621",
        "Correo": "jmacas@gmail.com" 
    },
    {
        "Apellidos": "Bravo Zambrano",
        "Nombres": "Luis Alexander",
        "Semestre": "3ero",
        "Paralelo": "B",
        "Dirección": "La Revancha",
        "Teléfono": "0996421579",
        "Correo": "lbravoz@hotmail.com" 
    },
    {
        "Apellidos": "Reyes Conforme",
        "Nombres": "Nerexi Jamilex",
        "Semestre": "9no",
        "Paralelo": "A",
        "Dirección": "Las Cumbres",
        "Teléfono": "0998346281",
        "Correo": "rjamilex@gmail.com" 
    },
    {
        "Apellidos": "Piloso Loor",
        "Nombres": "Jhalmar Michel",
        "Semestre": "8vo",
        "Paralelo": "B",
        "Dirección": "Ciudadela Universitaria",
        "Teléfono": "0967432109",
        "Correo": "jhalmarp@hotmail.com" 
    },
    {
        "Apellidos": "Velez Delgado",
        "Nombres": "Luis Guillermo",
        "Semestre": "9no",
        "Paralelo": "A",
        "Dirección": "Los Esteros",
        "Teléfono": "0943085128",
        "Correo": "lvelez@gmail.com" 
    },
    {
        "Apellidos": "Aguirre Barcia",
        "Nombres": "Darwin Fernando",
        "Semestre": "8vo",
        "Paralelo": "B",
        "Dirección": "Montecristi",
        "Teléfono": "0993356535",
        "Correo": "aguirredarwin@hotmail.com" 
    },
    {
        "Apellidos": "Mieles Panta",
        "Nombres": "Stiven Alexander",
        "Semestre": "8vo",
        "Paralelo": "B",
        "Dirección": "Bahía",
        "Teléfono": "0992301198",
        "Correo": "smieles@gmail.com" 
    },
    {
        "Apellidos": "Cruz Alvarado",
        "Nombres": "Roger David",
        "Semestre": "5to",
        "Paralelo": "B",
        "Dirección": "Manta",
        "Teléfono": "0990987846",
        "Correo": "rcruz@gmail.com" 
    },
    {
        "Apellidos": "Edison Francisco",
        "Nombres": "Lopez Mero",
        "Semestre": "7mo",
        "Paralelo": "C",
        "Dirección": "Santha Martha",
        "Teléfono": "0987654321",
        "Correo": "edisonlopez@hotmail.com" 
    }]
}